<svg width="32" height="33" viewBox="0 0 32 33" fill="none" xmlns="http://www.w3.org/2000/svg">
<circle cx="16" cy="16.5" r="16" fill="#2EA1DB"/>
<rect x="9.80469" y="7.54883" width="10.9934" height="16.8229" fill="white"/>
<path d="M22.3052 5.99441L7.84074 5.99414C7.4259 5.99414 7.42578 6.32957 7.42578 6.74441V23.9944C7.42578 24.4093 7.42561 24.7444 7.84045 24.7444H22.3052C22.72 24.7444 23.0552 24.4093 23.0552 23.9944V6.74441C23.0552 6.32957 22.72 5.99441 22.3052 5.99441ZM20.1396 11.4671H18.6419C17.4677 11.4671 17.2404 12.0249 17.2404 12.8452V14.6522H20.0435L19.6779 17.4811H17.2404V24.7444H14.3177V17.4835H11.8732V14.6522H14.3177V12.5663C14.3177 10.1452 15.7966 8.82566 17.9575 8.82566C18.9935 8.82566 19.8818 8.903 20.1419 8.93816V11.4671H20.1396Z" fill="#2EA1DB"/>
</svg>
